<?xml version="1.0" encoding="UTF-8" standalone="no"?>
<svg
   width="1215.0529"
   height="554.74292"
   viewBox="-171.42136 -30 1215.0528 554.74292"
   version="1.1"
   id="svg687"
   sodipodi:docname="ppcbf.svg"
   inkscape:version="1.1.2 (0a00cf5339, 2022-02-04)"
   xmlns:inkscape="http://www.inkscape.org/namespaces/inkscape"
   xmlns:sodipodi="http://sodipodi.sourceforge.net/DTD/sodipodi-0.dtd"
   xmlns:xlink="http://www.w3.org/1999/xlink"
   xmlns="http://www.w3.org/2000/svg"
   xmlns:svg="http://www.w3.org/2000/svg">
  <sodipodi:namedview
     id="namedview689"
     pagecolor="#ffffff"
     bordercolor="#666666"
     borderopacity="1.0"
     inkscape:pageshadow="2"
     inkscape:pageopacity="0.0"
     inkscape:pagecheckerboard="0"
     showgrid="false"
     fit-margin-top="0"
     fit-margin-left="0"
     fit-margin-right="0"
     fit-margin-bottom="0"
     inkscape:zoom="0.22964676"
     inkscape:cx="677.1269"
     inkscape:cy="855.66197"
     inkscape:window-width="1850"
     inkscape:window-height="1016"
     inkscape:window-x="70"
     inkscape:window-y="27"
     inkscape:window-maximized="1"
     inkscape:current-layer="svg687" />
  <style
     id="style2">
  .marker { stroke-width: 1px ; fill: context-stroke ; } .arrow { stroke:
  inherit ; fill: none ; stroke-width: 1px ; stroke-linecap: butt ;
  stroke-linejoin: miter ; stroke-miterlimit: 1px ; stroke-dasharray: 2px,
  1px ; stroke-dashoffset: 0 ; marker-end: url(#arrowMarker) ; } .initArrow {
  stroke: black ; } .thievesArrow { stroke: #a05a2c ; } .piratesArrow {
  stroke: #2a7fff ; } .shadowArrow { filter: url(#arrow-blur) ; stroke: white
  ; opacity: 0.6 ; } .flag-bg-red { stroke: black ; stroke-width: 0.1 ; fill:
  #8d5fd3 ; } .flag-bg-green { stroke: black ; stroke-width: 0.1 ; fill:
  #71c837 ; } .flag-bg-blue { stroke: black ; stroke-width: 0.1 ; fill:
  #aca793 ; } .circle-bg-pirates { fill: #d5e5ff ; } .circle-bg-thieves {
  fill: #ffeeaa ; } .mainIsland { stroke-width: 1.5px ; stroke: #a05a2c ;
  fill: #ffeeaa ; fill-rule: evenodd ; } .wave-1-shadow { stroke-width: 4.5px
  ; stroke: #d5e5ff ; fill-opacity: 0 ; fill-rule: evenodd ; } .wave-1 {
  stroke-width: 7.5px ; stroke: #2a7fff ; fill-opacity: 0 ; fill-rule:
  evenodd ; } .wave-2-shadow { stroke-width: 10.5px ; stroke: #d5e5ff ;
  fill-opacity: 0 ; fill-rule: evenodd ; } .wave-2 { stroke-width: 12.5px ;
  stroke: #2a7fff ; fill-opacity: 0 ; fill-rule: evenodd ; } .wave-3-shadow {
  stroke-width: 15.5px ; stroke: #d5e5ff ; fill-opacity: 0 ; fill-rule:
  evenodd ; } .wave-3 { stroke-width: 16.5px ; stroke: #2a7fff ;
  fill-opacity: 0 ; fill-rule: evenodd ; } .backgroundWater { fill: #d5e5ff ;
  } .fog { fill: white ; opacity: 0.204569 ; }
 </style>
  <defs
     id="defs449">
    <g
       id="arrow"
       transform="matrix(0.0366791,0,0,0.0366791,-1.5000028,-1.5413291)">
      <title
         id="title4">arrow</title>
      <defs
         id="arrow-defs2" />
      <g
         id="arrow-layer1"
         transform="translate(-50.4513,-88.113)">
        <path
           stroke="context-stroke"
           style="fill:none;stroke-width:20;stroke-linecap:butt;stroke-linejoin:miter;stroke-miterlimit:4;stroke-dasharray:none;stroke-opacity:1"
           d="m 60.451381,88.144774 c -0.04912,15.480606 27.4386,30.658656 63.921559,41.990306 v 0"
           id="arrow-path857" />
        <path
           stroke="context-stroke"
           style="fill:none;stroke-width:20;stroke-linecap:butt;stroke-linejoin:miter;stroke-miterlimit:4;stroke-dasharray:none;stroke-opacity:1"
           d="m 60.451381,172.12539 c -0.04912,-15.48061 27.4386,-30.65866 63.921559,-41.99031 v 0"
           id="arrow-path857-3" />
        <path
           fill="context-stroke"
           style="fill-opacity:1;stroke:none;stroke-width:1.37863px;stroke-linecap:butt;stroke-linejoin:miter;stroke-opacity:1"
           d="m 117.01468,141.75437 0.21854,-23.37412 c 6.84941,0 15.00859,1.2999 15.00859,11.87086 0,10.57087 -8.25086,11.50326 -15.22725,11.50326 z"
           id="arrow-path1801" />
      </g>
    </g>
    <g
       id="cant"
       transform="matrix(1.19951,0,0,1.19951,-4.4999858,-4.4946)">
      <title
         id="title12">cant</title>
      <defs
         id="cant-defs2" />
      <g
         id="cant-layer1"
         transform="translate(-159.887,-141.492)">
        <g
           id="cant-g11783-5"
           style="display:inline"
           transform="matrix(0.0745291,0,0,0.0745291,119.782,135.449)">
          <path
             id="cant-path8873-9-5"
             style="font-variation-settings:normal;vector-effect:none;fill:#ff0000;fill-opacity:1;stroke:#000000;stroke-width:0.271286px;stroke-linecap:butt;stroke-linejoin:miter;stroke-miterlimit:4;stroke-dasharray:none;stroke-dashoffset:0;stroke-opacity:1;-inkscape-stroke:none;stop-color:#000000"
             d="m 588.0788,83.414508 a 47.225369,47.225369 0 0 0 -47.22527,47.225262 47.225369,47.225369 0 0 0 47.22527,47.22586 47.225369,47.225369 0 0 0 47.22587,-47.22586 47.225369,47.225369 0 0 0 -47.22587,-47.225262 z m 0,10.10715 a 37.118207,37.118207 0 0 1 21.48625,6.885762 l -50.2827,53.49294 a 37.118207,37.118207 0 0 1 -8.32168,-23.26059 37.118207,37.118207 0 0 1 37.11813,-37.118112 z m 29.459,14.632692 a 37.118207,37.118207 0 0 1 7.65972,22.48542 37.118207,37.118207 0 0 1 -37.11872,37.1181 37.118207,37.118207 0 0 1 -20.60347,-6.34505 z" />
        </g>
      </g>
    </g>
    <g
       id="parrot"
       transform="matrix(1.0309,0,0,1.0309,-0.90000044,-1.0528582)">
      <title
         id="title19">parrot</title>
      <defs
         id="parrot-defs2" />
      <g
         id="parrot-layer1"
         transform="translate(-89.9338,-128.361)">
        <path
           id="parrot-path1023"
           style="display:inline;fill:#17280b;stroke:#000000;stroke-width:0.0197191px;stroke-linecap:butt;stroke-linejoin:miter;stroke-opacity:1"
           d="m 91.350878,128.3715 c -0.0565,2.2e-4 -0.09504,0.0272 -0.137803,0.0418 -0.105577,0.0684 -0.140635,0.12484 -0.206743,0.18656 -0.158432,0.1512 -0.326005,0.2912 -0.460358,0.47192 -0.132562,0.14945 -0.08689,0.38814 -0.185906,0.54046 -0.155959,0.28968 -0.524252,0.80675 -0.385642,0.78095 0.19497,-0.20267 0.389905,-0.4391 0.584874,-0.66937 0.06857,-0.08 0.102055,-0.14148 0.208785,-0.24164 0.03002,-0.0237 0.06632,-0.0437 0.123512,-0.0728 0.05585,-0.005 0.112461,-0.0112 0.07899,0.0239 -0.07515,0.0651 -0.0415,0.11518 -0.02804,0.11739 0.06822,-0.13739 0.153671,-0.13031 0.249725,-0.0343 0.03002,-0.0462 0.0022,-0.0808 -0.03193,-0.11419 -0.044,-0.0187 -0.0706,-0.0168 -0.0947,-0.0119 -0.02107,-0.0155 -0.02942,-0.0327 -0.03828,-0.0499 0.03392,-0.0174 0.07079,-0.0365 0.11427,-0.0597 0.09374,-0.10981 0.225396,-0.14743 0.278419,-0.33484 0.0099,-0.0885 -0.02145,-0.14535 -0.0071,-0.19253 0.04012,-0.011 0.07515,-0.0391 0.132027,0.006 0.03085,0.016 0.0096,0.032 0.01086,0.048 0.06199,0.0149 0.08377,-0.0478 0.109573,-0.10275 -0.0033,-0.0568 0.02253,-0.10352 -0.02107,-0.17409 -0.142412,-0.12537 -0.229484,-0.15946 -0.293514,-0.15921 z m 0.174852,0.16418 a 0.02606268,0.02644656 0 0 1 0.02604,0.0265 0.02606268,0.02644656 0 0 1 -0.02604,0.0265 0.02606268,0.02644656 0 0 1 -0.02607,-0.0265 0.02606268,0.02644656 0 0 1 0.02607,-0.0265 z" />
        <path
           id="parrot-path1023-3"
           style="display:inline;fill:#17280b;stroke:#000000;stroke-width:0.0197191px;stroke-linecap:butt;stroke-linejoin:miter;stroke-opacity:1"
           d="m 91.350878,128.3715 c -0.0565,2.2e-4 -0.09504,0.0272 -0.137803,0.0418 -0.105577,0.0684 -0.140635,0.12484 -0.206743,0.18656 -0.158432,0.1512 -0.326005,0.2912 -0.460358,0.47192 -0.132562,0.14945 -0.08689,0.38814 -0.185906,0.54046 -0.155959,0.28968 -0.524252,0.80675 -0.385642,0.78095 0.19497,-0.20267 0.389905,-0.4391 0.584874,-0.66937 0.06857,-0.08 0.102055,-0.14148 0.208785,-0.24164 0.03002,-0.0237 0.06632,-0.0437 0.123512,-0.0728 0.05585,-0.005 0.112461,-0.0112 0.07899,0.0239 -0.07515,0.0651 -0.0415,0.11518 -0.02804,0.11739 0.06822,-0.13739 0.153671,-0.13031 0.249725,-0.0343 0.03002,-0.0462 0.0022,-0.0808 -0.03193,-0.11419 -0.044,-0.0187 -0.0706,-0.0168 -0.0947,-0.0119 -0.02107,-0.0155 -0.02942,-0.0327 -0.03828,-0.0499 0.03392,-0.0174 0.07079,-0.0365 0.11427,-0.0597 0.09374,-0.10981 0.225396,-0.14743 0.278419,-0.33484 0.0099,-0.0885 -0.02145,-0.14535 -0.0071,-0.19253 0.04012,-0.011 0.07515,-0.0391 0.132027,0.006 0.03085,0.016 0.0096,0.032 0.01086,0.048 0.06199,0.0149 0.08377,-0.0478 0.109573,-0.10275 -0.0033,-0.0568 0.02253,-0.10352 -0.02107,-0.17409 -0.142412,-0.12537 -0.229484,-0.15946 -0.293514,-0.15921 z m 0.174852,0.16418 a 0.02606268,0.02644656 0 0 1 0.02604,0.0265 0.02606268,0.02644656 0 0 1 -0.02604,0.0265 0.02606268,0.02644656 0 0 1 -0.02607,-0.0265 0.02606268,0.02644656 0 0 1 0.02607,-0.0265 z" />
      </g>
    </g>
    <g
       id="thieves_win"
       transform="matrix(1.46848,0,0,1.46848,-3.4999899,-3.2666925)">
      <title
         id="title26">thieves_win</title>
      <defs
         id="thieves_win-defs2" />
      <g
         id="thieves_win-layer1"
         transform="translate(-143.392,-127.323)">
        <g
           id="thieves_win-g17927-8-0"
           style="display:inline;fill:none;fill-opacity:1;stroke:#a05a2c;stroke-width:3;stroke-miterlimit:4;stroke-dasharray:none;stroke-opacity:1"
           transform="matrix(0.32283,0,0,0.32283,93.8185,120.622)">
          <path
             style="fill:none;fill-opacity:1;stroke:#a05a2c;stroke-width:3;stroke-linecap:butt;stroke-linejoin:miter;stroke-miterlimit:4;stroke-dasharray:none;stroke-opacity:1"
             d="M 156.07439,22.456512 166.9276,33.486968"
             id="thieves_win-path17841-6-6" />
          <path
             style="fill:none;fill-opacity:1;stroke:#a05a2c;stroke-width:3;stroke-linecap:butt;stroke-linejoin:miter;stroke-miterlimit:4;stroke-dasharray:none;stroke-opacity:1"
             d="m 154.39794,30.840378 13.08645,-8.839867"
             id="thieves_win-path17843-8-8" />
        </g>
        <g
           id="thieves_win-g17927-8-0-3"
           style="display:inline;fill:none;fill-opacity:1;stroke:#a05a2c;stroke-width:3;stroke-miterlimit:4;stroke-dasharray:none;stroke-opacity:1"
           transform="matrix(0.32283,0,0,0.32283,93.8185,120.622)">
          <path
             style="fill:none;fill-opacity:1;stroke:#a05a2c;stroke-width:3;stroke-linecap:butt;stroke-linejoin:miter;stroke-miterlimit:4;stroke-dasharray:none;stroke-opacity:1"
             d="M 156.07439,22.456512 166.9276,33.486968"
             id="thieves_win-path17841-6-6-6" />
          <path
             style="fill:none;fill-opacity:1;stroke:#a05a2c;stroke-width:3;stroke-linecap:butt;stroke-linejoin:miter;stroke-miterlimit:4;stroke-dasharray:none;stroke-opacity:1"
             d="m 154.39794,30.840378 13.08645,-8.839867"
             id="thieves_win-path17843-8-8-7" />
        </g>
      </g>
    </g>
    <g
       id="circle_blue"
       transform="matrix(1.19951,0,0,1.19951,-4.4999858,-4.4946)">
      <title
         id="title37">circle_blue</title>
      <defs
         id="circle_blue-defs2" />
      <g
         id="circle_blue-layer1"
         transform="translate(-159.887,-141.492)">
        <g
           id="circle_blue-g11783-5"
           style="display:inline"
           transform="matrix(0.0745291,0,0,0.0745291,119.782,135.449)">
          <circle
             style="font-variation-settings:normal;display:inline;fill:none;fill-opacity:1;stroke:#2a7fff;stroke-width:7;stroke-linecap:butt;stroke-linejoin:miter;stroke-miterlimit:4;stroke-dasharray:21, 7;stroke-dashoffset:0;stroke-opacity:1;stop-color:#000000"
             id="circle_blue-path10794-4-4"
             cx="588.44"
             cy="131.29401"
             r="46.836201" />
        </g>
      </g>
    </g>
    <g
       id="must"
       transform="matrix(1.19951,0,0,1.19951,-4.4999858,-4.4946)">
      <title
         id="title44">must</title>
      <defs
         id="must-defs2" />
      <g
         id="must-layer1"
         transform="translate(-110.611,-97.984)">
        <g
           id="must-g11787"
           transform="matrix(0.0745291,0,0,0.0745291,79.2201,92.0496)"
           style="display:inline">
          <path
             id="must-path8873"
             style="font-variation-settings:normal;vector-effect:none;fill:#0066ff;fill-opacity:1;stroke:#000000;stroke-width:0.0753828px;stroke-linecap:butt;stroke-linejoin:miter;stroke-miterlimit:4;stroke-dasharray:none;stroke-dashoffset:0;stroke-opacity:1;-inkscape-stroke:none;stop-color:#000000"
             d="m -2562.957,3007.832 c -7.2478,-3e-4 -13.1234,5.8753 -13.1231,13.1231 -2e-4,7.2478 5.8753,13.1233 13.1231,13.123 7.247,-8e-4 13.1213,-5.876 13.1211,-13.123 3e-4,-7.2471 -5.8741,-13.1223 -13.1211,-13.1231 z m -0.08,3.8184 c 5.1895,0 9.3965,4.207 9.3965,9.3965 0,5.1895 -4.207,9.3965 -9.3965,9.3965 -5.1895,0 -9.3965,-4.207 -9.3965,-9.3965 0,-5.1895 4.207,-9.3965 9.3965,-9.3965 z"
             transform="matrix(3.55007,0,0,3.55007,9570.48,-10595)" />
          <path
             id="must-path8873-93"
             style="font-variation-settings:normal;display:inline;vector-effect:none;fill:#ffffff;fill-opacity:1;stroke:#000000;stroke-width:0.267614px;stroke-linecap:butt;stroke-linejoin:miter;stroke-miterlimit:4;stroke-dasharray:none;stroke-dashoffset:0;stroke-opacity:1;-inkscape-stroke:none;stop-color:#000000"
             d="m 471.80628,82.989344 c -25.73019,-0.0011 -46.58898,20.857726 -46.58791,46.587916 -7.1e-4,25.73019 20.85772,46.58863 46.58791,46.58756 25.72735,-0.003 46.58153,-20.86021 46.58082,-46.58756 10e-4,-25.72771 -20.85347,-46.585076 -46.58082,-46.587916 z m -0.284,4.157378 c 23.61352,0 42.75643,19.142908 42.75643,42.756438 0,23.61352 -19.14291,42.75643 -42.75643,42.75643 -23.61353,0 -42.75644,-19.14291 -42.75644,-42.75643 0,-23.61353 19.14291,-42.756438 42.75644,-42.756438 z" />
        </g>
      </g>
    </g>
    <g
       id="anchor"
       transform="matrix(1.24735,0,0,1.24735,-0.90000169,-1.1961625)">
      <title
         id="title52">anchor</title>
      <defs
         id="anchor-defs2" />
      <g
         id="anchor-layer1"
         transform="translate(-90.3057,-127.995)">
        <path
           id="anchor-path3026"
           style="display:inline;fill:#24221c;stroke:#000000;stroke-width:0.00783561px;stroke-linecap:butt;stroke-linejoin:miter;stroke-opacity:1"
           d="m 91.026778,127.99845 a 0.16133178,0.16133178 0 0 0 -0.161335,0.16131 0.16133178,0.16133178 0 0 0 0.08604,0.14256 l 6.71e-4,0.14433 -0.295612,9.2e-4 0.0063,-0.025 -0.09097,0.005 0.0079,0.16997 h 0.07401 l 0.0033,-0.0339 0.295549,1.5e-4 0.0043,0.89211 c 0.0014,0.0605 -0.03256,0.0792 -0.0794,0.0826 -0.06947,0.0173 -0.128706,-0.0188 -0.189142,-0.0487 -0.08232,-0.0344 -0.118051,-0.11109 -0.171542,-0.17166 -0.02005,-0.0311 -0.03974,-0.0707 -0.05941,-0.1108 0.01565,-0.0132 0.03079,-0.0289 0.04561,-0.0463 l -0.145893,-0.12852 -0.04689,0.20468 c 0.01654,0.007 0.03238,0.0105 0.04761,0.0109 0.02834,0.10781 0.0641,0.21569 0.103301,0.3236 0.216278,0.30506 0.379361,0.26327 0.56011,0.33666 0.172527,-0.0401 0.328239,-0.1003 0.45514,-0.19511 0.115667,-0.10392 0.1522,-0.25923 0.206543,-0.40326 0.0075,-0.0235 0.01009,-0.045 0.01103,-0.0657 0.01618,0.002 0.03287,0.003 0.04989,0.004 l -0.04506,-0.21488 -0.148449,0.13517 c 0.0141,0.0186 0.03037,0.033 0.04833,0.0442 -0.0052,0.0147 -0.01184,0.032 -0.0228,0.0565 -0.144484,0.22719 -0.220529,0.21273 -0.317695,0.27284 -0.06392,0.008 -0.117338,0.007 -0.142419,-0.0185 -0.02154,-0.048 -0.02204,-0.096 -0.02381,-0.14405 l 0.01275,-0.81565 0.28574,1.5e-4 0.0016,0.0321 0.07791,-0.003 0.0093,-0.1706 -0.08047,-0.004 -0.001,0.0267 -0.291203,9.1e-4 0.0023,-0.14761 a 0.16133178,0.16133178 0 0 0 0.07909,-0.13879 0.16133178,0.16133178 0 0 0 -0.16132,-0.16132 z m 0.0031,0.11069 a 0.05858899,0.05858899 0 0 1 0.05858,0.0586 0.05858899,0.05858899 0 0 1 -0.05858,0.0586 0.05858899,0.05858899 0 0 1 -0.0586,-0.0586 0.05858899,0.05858899 0 0 1 0.0586,-0.0586 z" />
      </g>
    </g>
    <g
       id="shed"
       transform="matrix(0.467486,0,0,0.467486,-4.9999965,-4.9999965)">
      <title
         id="title58">shed</title>
      <defs
         id="shed-defs20" />
      <g
         transform="translate(-112.201,-91.7183)"
         id="shed-g15">
        <g
           id="shed-g9454-4-8-9"
           style="display:inline"
           transform="matrix(3.11347,0,0,3.11347,843.55,-513.151)">
          <g
             id="shed-g9815-8-0-5-0-1"
             transform="matrix(0.0745291,0,0,0.0745291,-266.434,181.898)"
             style="display:inline;fill:#ffeeaa;fill-opacity:1">
            <rect
               style="font-variation-settings:normal;display:inline;vector-effect:none;fill:#ffeeaa;fill-opacity:1;stroke:#a05a2c;stroke-width:7;stroke-linecap:butt;stroke-linejoin:miter;stroke-miterlimit:4;stroke-dasharray:21, 7;stroke-dashoffset:0;stroke-opacity:1;-inkscape-stroke:none;stop-color:#000000"
               id="shed-rect8849-7-4-9-4-6-7"
               width="85.184998"
               height="85.184998"
               x="426.638"
               y="169.565"
               rx="9.9852505"
               ry="9.9852505" />
          </g>
          <g
             id="shed-g9350-7-4-2"
             transform="translate(-0.510209,0.772331)"
             style="display:inline;opacity:1;stroke-width:0.2;stroke-miterlimit:4;stroke-dasharray:none">
            <path
               style="font-variation-settings:normal;opacity:1;fill:#ffeeaa;fill-opacity:1;stroke:#a05a2c;stroke-width:0.2;stroke-linecap:butt;stroke-linejoin:miter;stroke-miterlimit:4;stroke-dasharray:none;stroke-dashoffset:0;stroke-opacity:1;stop-color:#000000;stop-opacity:1"
               d="m -233.34763,197.52106 c 0.43752,-0.59394 0.86332,-1.14938 1.40415,-2.08268 0.15696,0.93614 0.58913,1.48442 0.95556,2.12535 l 1.8915,-0.36211 c -0.43079,-0.52614 -0.71703,-1.44057 -1.01133,-2.25742 l -1.74029,0.21052"
               id="shed-path8017-6-5-6" />
            <path
               style="font-variation-settings:normal;opacity:1;fill:none;fill-opacity:1;stroke:#a05a2c;stroke-width:0.2;stroke-linecap:butt;stroke-linejoin:miter;stroke-miterlimit:4;stroke-dasharray:none;stroke-dashoffset:0;stroke-opacity:1;stop-color:#000000;stop-opacity:1"
               d="m -232.52783,197.76499 0.10999,-0.85176 0.63052,0.12365 -0.0793,0.84766"
               id="shed-path8557-5-0-6" />
            <path
               style="font-variation-settings:normal;opacity:1;fill:none;fill-opacity:1;stroke:#a05a2c;stroke-width:0.2;stroke-linecap:butt;stroke-linejoin:miter;stroke-miterlimit:4;stroke-dasharray:none;stroke-dashoffset:0;stroke-opacity:1;stop-color:#000000;stop-opacity:1"
               d="m -233.35681,197.53431 2.13514,0.46322 2.3524,-0.51861"
               id="shed-path8860-6-3-4" />
            <path
               style="font-variation-settings:normal;opacity:1;fill:none;fill-opacity:1;stroke:#a05a2c;stroke-width:0.2;stroke-linecap:butt;stroke-linejoin:miter;stroke-miterlimit:4;stroke-dasharray:none;stroke-dashoffset:0;stroke-opacity:1;stop-color:#000000;stop-opacity:1"
               d="m -233.21821,197.58298 v 0.96364"
               id="shed-path8905-9-6-9" />
            <path
               style="font-variation-settings:normal;opacity:1;fill:none;fill-opacity:1;stroke:#a05a2c;stroke-width:0.2;stroke-linecap:butt;stroke-linejoin:miter;stroke-miterlimit:4;stroke-dasharray:none;stroke-dashoffset:0;stroke-opacity:1;stop-color:#000000;stop-opacity:1"
               d="m -231.24077,198.01433 v 1.05372"
               id="shed-path8907-3-1-5" />
            <path
               style="font-variation-settings:normal;opacity:1;fill:none;fill-opacity:1;stroke:#a05a2c;stroke-width:0.2;stroke-linecap:butt;stroke-linejoin:miter;stroke-miterlimit:4;stroke-dasharray:none;stroke-dashoffset:0;stroke-opacity:1;stop-color:#000000;stop-opacity:1"
               d="m -228.98097,197.52693 v 0.75875"
               id="shed-path8909-7-0-0" />
            <path
               style="font-variation-settings:normal;opacity:1;fill:none;fill-opacity:1;stroke:#a05a2c;stroke-width:0.2;stroke-linecap:butt;stroke-linejoin:miter;stroke-miterlimit:4;stroke-dasharray:none;stroke-dashoffset:0;stroke-opacity:1;stop-color:#000000;stop-opacity:1"
               d="m -233.17836,198.51084 1.90462,-0.49642"
               id="shed-path9126-4-6-4" />
            <path
               style="font-variation-settings:normal;opacity:1;fill:none;fill-opacity:1;stroke:#a05a2c;stroke-width:0.2;stroke-linecap:butt;stroke-linejoin:miter;stroke-miterlimit:4;stroke-dasharray:none;stroke-dashoffset:0;stroke-opacity:1;stop-color:#000000;stop-opacity:1"
               d="m -233.2141,197.57786 1.97936,1.43209 2.27132,-1.45882"
               id="shed-path9171-5-3-8" />
            <path
               style="font-variation-settings:normal;opacity:1;fill:none;fill-opacity:1;stroke:#a05a2c;stroke-width:0.2;stroke-linecap:butt;stroke-linejoin:miter;stroke-miterlimit:4;stroke-dasharray:none;stroke-dashoffset:0;stroke-opacity:1;stop-color:#000000;stop-opacity:1"
               d="m -228.93702,198.26859 -2.27713,-0.20742"
               id="shed-path9216-2-2-7" />
          </g>
        </g>
      </g>
    </g>
    <g
       id="rudder"
       transform="matrix(0.788979,0,0,0.788979,-0.89999624,-0.89986211)">
      <title
         id="title76">rudder</title>
      <defs
         id="rudder-defs2" />
      <g
         id="rudder-layer1"
         transform="translate(-89.4668,-128.663)">
        <path
           id="rudder-path5306"
           style="display:inline;fill:#170b28;stroke:#000000;stroke-width:0.00723346px;stroke-linecap:butt;stroke-linejoin:miter;stroke-opacity:1"
           d="m 90.613395,128.66666 c -0.02047,6e-4 -0.04958,0.0132 -0.05352,0.0329 -0.02387,0.11938 0.01478,0.20927 0.02657,0.30859 h -0.0269 l -5.21e-4,0.0524 h 0.02954 l -7.5e-5,0.0562 a 0.68764872,0.69297821 0 0 0 -0.446199,0.1796 l -0.03953,-0.0399 0.0215,-0.0215 -0.03702,-0.037 -0.01892,0.0189 c -0.05653,-0.075 -0.107781,-0.16301 -0.196208,-0.22825 -0.03086,-0.0228 -0.05574,-0.003 -0.06473,0.006 -0.01403,0.0149 -0.02569,0.0444 -0.01457,0.0611 0.06753,0.1013 0.158422,0.13752 0.236995,0.19941 l -0.01902,0.019 0.03663,0.0374 0.02088,-0.0209 0.03977,0.0399 a 0.68764872,0.69297821 0 0 0 -0.189285,0.44283 l -0.05451,-2.3e-4 v -0.0304 h -0.05234 v 0.0268 c -0.09297,-0.013 -0.191478,-0.0391 -0.300132,-0.0227 -0.03792,0.006 -0.04178,0.0371 -0.04138,0.0502 5.96e-4,0.0205 0.01324,0.0496 0.03292,0.0535 0.119382,0.0239 0.209273,-0.0148 0.308594,-0.0266 v 0.0269 l 0.05234,5.2e-4 v -0.0295 l 0.05299,8e-5 a 0.68764872,0.69297821 0 0 0 0.177869,0.45115 l -0.03488,0.0346 -0.0215,-0.0215 -0.037,0.037 0.01892,0.0189 c -0.07495,0.0565 -0.163016,0.10778 -0.228249,0.1962 -0.02277,0.0309 -0.0033,0.0557 0.0062,0.0647 0.01492,0.014 0.04442,0.0257 0.06112,0.0146 0.101298,-0.0675 0.13754,-0.15842 0.199428,-0.23699 l 0.01902,0.019 0.0374,-0.0366 -0.02089,-0.0209 0.03466,-0.0345 a 0.68764872,0.69297821 0 0 0 0.457092,0.19249 l -7.5e-5,0.0466 h -0.03528 l 5.22e-4,0.0523 h 0.0269 c -0.0118,0.0993 -0.05045,0.18921 -0.02657,0.3086 0.0039,0.0197 0.03305,0.0323 0.05352,0.0329 0.01312,3.8e-4 0.04446,-0.003 0.05018,-0.0414 0.0164,-0.10865 -0.0096,-0.20716 -0.02266,-0.30013 h 0.02676 v -0.0523 h -0.02874 l 2.23e-4,-0.0473 a 0.68764872,0.69297821 0 0 0 0.449166,-0.19362 l 0.03744,0.0376 -0.02495,0.0249 0.0374,0.0366 0.01902,-0.019 c 0.06189,0.0786 0.09813,0.16946 0.199428,0.237 0.01669,0.0111 0.0462,-5.2e-4 0.06112,-0.0146 0.0096,-0.009 0.02898,-0.0339 0.0062,-0.0647 -0.06523,-0.0884 -0.153301,-0.13968 -0.228249,-0.19621 l 0.01893,-0.0189 -0.03702,-0.037 -0.02032,0.0203 -0.03745,-0.0378 a 0.68764872,0.69297821 0 0 0 0.178562,-0.44998 l 0.0602,7e-5 v 0.0353 l 0.05234,-5.3e-4 v -0.0269 c 0.09932,0.0118 0.189211,0.0504 0.308594,0.0266 0.01967,-0.004 0.03229,-0.0331 0.03292,-0.0535 3.73e-4,-0.0131 -0.0035,-0.0445 -0.04138,-0.0502 -0.108653,-0.0164 -0.207165,0.01 -0.300131,0.0227 v -0.0268 h -0.05234 v 0.0287 l -0.05982,-2.3e-4 a 0.68764872,0.69297821 0 0 0 -0.185513,-0.44474 l 0.04193,-0.0418 0.02495,0.0249 0.03663,-0.0374 -0.01903,-0.019 c 0.07857,-0.0619 0.169475,-0.0981 0.237008,-0.19942 0.01113,-0.0167 -5.22e-4,-0.0462 -0.01457,-0.0611 -0.009,-0.01 -0.03389,-0.029 -0.06475,-0.006 -0.08843,0.0652 -0.139682,0.1533 -0.196207,0.22825 l -0.01892,-0.0189 -0.03701,0.037 0.02032,0.0203 -0.04193,0.0416 a 0.68764872,0.69297821 0 0 0 -0.436775,-0.18642 l 2.23e-4,-0.0559 h 0.0304 v -0.0523 h -0.02676 c 0.01303,-0.093 0.03906,-0.19147 0.02266,-0.30013 -0.0057,-0.0379 -0.03706,-0.0418 -0.05018,-0.0414 z m 0.0231,0.57934 a 0.55927224,0.56360674 0 0 1 0.345723,0.14768 l -0.293322,0.29088 a 0.13685795,0.13685795 0 0 0 -0.05415,-0.0225 z m -0.0482,2.3e-4 -5.96e-4,0.41566 a 0.13685795,0.13685795 0 0 0 -0.05832,0.0248 l -0.295751,-0.29824 a 0.55927224,0.56360674 0 0 1 0.354679,-0.14222 z m -0.38963,0.17543 0.298153,0.29903 a 0.13685795,0.13685795 0 0 0 -0.02153,0.0553 l -0.427903,-0.002 a 0.55927224,0.56360674 0 0 1 0.151281,-0.35252 z m 0.815471,0.004 a 0.55927224,0.56360674 0 0 1 0.1483,0.35321 l -0.41646,-0.002 a 0.13685795,0.13685795 0 0 0 -0.02415,-0.06 z m -0.968363,0.39674 0.43056,6e-4 a 0.13685795,0.13685795 0 0 0 0.02136,0.0511 l -0.310458,0.30788 a 0.55927224,0.56360674 0 0 1 -0.141462,-0.35964 z m 0.698931,0.001 0.417336,6e-4 a 0.55927224,0.56360674 0 0 1 -0.141404,0.3581 l -0.300712,-0.30326 a 0.13685795,0.13685795 0 0 0 0.02478,-0.0555 z m -0.214078,0.0843 a 0.13685795,0.13685795 0 0 0 0.05667,0.0238 l -6.7e-4,0.43929 a 0.55927224,0.56360674 0 0 1 -0.366405,-0.15361 z m 0.155632,0.003 0.303706,0.3046 a 0.55927224,0.56360674 0 0 1 -0.358183,0.15471 l 0.0018,-0.43842 a 0.13685795,0.13685795 0 0 0 0.05264,-0.0209 z" />
      </g>
    </g>
    <g
       id="circle_brown"
       transform="matrix(1.19951,0,0,1.19951,-4.4999858,-4.4946)">
      <title
         id="title82">circle_brown</title>
      <defs
         id="circle_brown-defs2" />
      <g
         id="circle_brown-layer1"
         transform="translate(-110.611,-97.984)">
        <g
           id="circle_brown-g11787"
           transform="matrix(0.0745291,0,0,0.0745291,79.2201,92.0496)"
           style="display:inline">
          <circle
             style="font-variation-settings:normal;display:inline;fill:none;fill-opacity:1;stroke:#a05a2c;stroke-width:7;stroke-linecap:butt;stroke-linejoin:miter;stroke-miterlimit:4;stroke-dasharray:21, 7;stroke-dashoffset:0;stroke-opacity:1;stop-color:#000000"
             id="circle_brown-path10794"
             cx="471.521"
             cy="129.841"
             r="46.836201" />
        </g>
      </g>
    </g>
    <g
       id="buoy"
       transform="matrix(0.467486,0,0,0.467486,-4.9999965,-4.9999965)">
      <title
         id="title89">buoy</title>
      <defs
         id="buoy-defs15" />
      <g
         transform="translate(-104.237,-60.8814)"
         id="buoy-g10">
        <g
           id="buoy-g9454-5-7-1-9-0"
           style="display:inline;stroke:#2a7fff;stroke-opacity:1"
           transform="matrix(3.11347,0,0,3.11347,838.034,-276.026)">
          <g
             id="buoy-g16402-4-5-2-8">
            <g
               id="buoy-g9815-8-0-1-4-5-0-8"
               transform="matrix(0.0745291,0,0,0.0745291,-267.22,95.8329)"
               style="display:inline;fill:#d5e5ff;fill-opacity:1;stroke:#2a7fff;stroke-opacity:1">
              <rect
                 style="font-variation-settings:normal;display:inline;vector-effect:none;fill:#d5e5ff;fill-opacity:1;stroke:#2a7fff;stroke-width:7;stroke-linecap:butt;stroke-linejoin:miter;stroke-miterlimit:4;stroke-dasharray:21, 7;stroke-dashoffset:0;stroke-opacity:1;-inkscape-stroke:none;stop-color:#000000"
                 id="buoy-rect8849-7-4-9-5-3-4-6-5"
                 width="85.184998"
                 height="85.184998"
                 x="426.638"
                 y="169.565"
                 rx="9.9852505"
                 ry="9.9852505" />
            </g>
            <g
               id="buoy-g13862-0-7-8-0"
               transform="translate(-0.735817,-85.4976)"
               style="stroke:#2a7fff;stroke-width:0.2;stroke-miterlimit:4;stroke-dasharray:none;stroke-opacity:1">
              <path
                 style="fill:#ffffff;stroke:#2a7fff;stroke-width:0.2;stroke-linecap:butt;stroke-linejoin:miter;stroke-miterlimit:4;stroke-dasharray:none;stroke-opacity:1"
                 d="m -231.45951,196.16944 c 0.19141,0.0593 0.38857,0.0998 0.60733,0.0697 l 0.0307,-0.55468 c -0.19847,0.005 -0.37423,-0.015 -0.54836,-0.0373 z"
                 id="buoy-path13455-7-6-9-9" />
              <path
                 style="fill:none;stroke:#2a7fff;stroke-width:0.2;stroke-linecap:butt;stroke-linejoin:miter;stroke-miterlimit:4;stroke-dasharray:none;stroke-opacity:1"
                 d="m -233.5809,198.12867 c 0.10632,-0.30327 0.52819,-0.63896 0.78786,-0.37083 0.20963,0.21646 0.45762,0.6668 0.75242,0.32145 0.23383,-0.27392 0.47416,-0.51961 0.89476,-0.5394 0.46176,-0.0217 0.47352,0.39638 0.78494,0.54129 0.36819,0.17133 0.75631,-0.0807 0.99954,-0.37154 0.0146,-0.0175 0.0311,-0.0334 0.0466,-0.0501"
                 id="buoy-path12636-8-5-2-6" />
              <path
                 id="buoy-path12860-6-6-6-3"
                 style="fill:none;stroke:#2a7fff;stroke-width:0.755906;stroke-linecap:butt;stroke-linejoin:miter;stroke-miterlimit:4;stroke-dasharray:none;stroke-opacity:1"
                 d="m -147.89648,131.66797 -1.17969,1.11719 -0.26758,2.31836 -4.23437,4.2207 c 1.15263,0.97288 2.12102,1.59396 2.9746,1.95508 0.64109,-0.57147 1.39062,-0.98618 2.43164,-1.03516 0.90808,-0.0427 1.3559,0.36405 1.74219,0.8418 0.49703,-0.23539 1.00403,-0.51693 1.54883,-0.81055 l -2.18555,-4.99219 0.1875,-2.42773 z"
                 transform="matrix(0.264583,0,0,0.264583,-191.942,160.434)" />
            </g>
          </g>
        </g>
      </g>
    </g>
    <g
       id="pirates_win"
       transform="matrix(1.46848,0,0,1.46848,-3.4999899,-3.2666925)">
      <title
         id="title102">pirates_win</title>
      <defs
         id="pirates_win-defs2" />
      <g
         id="pirates_win-layer1"
         transform="translate(-120.513,-103.944)">
        <g
           id="pirates_win-g17927-8"
           style="display:inline;fill:none;fill-opacity:1;stroke:#2a7fff;stroke-width:3;stroke-miterlimit:4;stroke-dasharray:none;stroke-opacity:1"
           transform="matrix(0.32283,0,0,0.32283,70.9399,97.2433)">
          <path
             style="fill:none;fill-opacity:1;stroke:#2a7fff;stroke-width:3;stroke-linecap:butt;stroke-linejoin:miter;stroke-miterlimit:4;stroke-dasharray:none;stroke-opacity:1"
             d="M 156.07439,22.456512 166.9276,33.486968"
             id="pirates_win-path17841-6" />
          <path
             style="fill:none;fill-opacity:1;stroke:#2a7fff;stroke-width:3;stroke-linecap:butt;stroke-linejoin:miter;stroke-miterlimit:4;stroke-dasharray:none;stroke-opacity:1"
             d="m 154.39794,30.840378 13.08645,-8.839867"
             id="pirates_win-path17843-8" />
        </g>
      </g>
    </g>
    <marker
       id="arrowMarker"
       orient="auto"
       refX="1.5"
       refY="1.54133"
       markerWidth="3"
       markerHeight="3.08266"
       viewBox="0 0 3 3.08265859635823514">
      <use
         xlink:href="#arrow"
         class="marker"
         fill="context-stroke"
         x="1.5"
         y="1.54133"
         id="use110"
         width="100%"
         height="100%" />
    </marker>
    <filter
       id="arrow-blur"
       x="-inf"
       y="-inf"
       width="inf"
       height="inf">
      <feGaussianBlur
         stdDeviation="1"
         id="feGaussianBlur113" />
    </filter>
    <clipPath
       id="clip-flag">
      <rect
         x="2.0999999"
         y="-3"
         width="6"
         height="6"
         id="rect116" />
    </clipPath>
    <g
       id="flag-1-red">
      <path
         d="M -3,-1.71429 V 1.71429 L 3,0.857143 v -1.714286 z"
         class="flag-bg-red"
         id="path119" />
      <use
         xlink:href="#rudder"
         x="-1.90909"
         y="0"
         id="use121"
         width="100%"
         height="100%" />
    </g>
    <g
       id="flag-1-green">
      <path
         d="M -3,-1.71429 V 1.71429 L 3,0.857143 v -1.714286 z"
         class="flag-bg-green"
         id="path124" />
      <use
         xlink:href="#parrot"
         x="-1.90909"
         y="0"
         id="use126"
         width="100%"
         height="100%" />
    </g>
    <g
       id="flag-1-blue">
      <path
         d="M -3,-1.71429 V 1.71429 L 3,0.857143 v -1.714286 z"
         class="flag-bg-blue"
         id="path129" />
      <use
         xlink:href="#anchor"
         x="-1.90909"
         y="0"
         id="use131"
         width="100%"
         height="100%" />
    </g>
    <g
       id="choice-buoy-1">
      <use
         xlink:href="#buoy"
         x="0"
         y="0"
         id="use134"
         width="100%"
         height="100%" />
      <use
         xlink:href="#flag-1-red"
         x="6"
         y="-4.1999998"
         id="use136"
         width="100%"
         height="100%" />
      <use
         xlink:href="#flag-1-green"
         x="6"
         y="0"
         id="use138"
         width="100%"
         height="100%" />
      <use
         xlink:href="#flag-1-blue"
         x="6"
         y="4.1999998"
         id="use140"
         width="100%"
         height="100%" />
    </g>
    <g
       id="choice-shed-1">
      <use
         xlink:href="#shed"
         x="0"
         y="0"
         id="use143"
         width="100%"
         height="100%" />
      <use
         xlink:href="#flag-1-red"
         x="6"
         y="-4.1999998"
         id="use145"
         width="100%"
         height="100%" />
      <use
         xlink:href="#flag-1-green"
         x="6"
         y="0"
         id="use147"
         width="100%"
         height="100%" />
      <use
         xlink:href="#flag-1-blue"
         x="6"
         y="4.1999998"
         id="use149"
         width="100%"
         height="100%" />
    </g>
    <g
       id="signal-pirate-must-1-red">
      <circle
         cx="0"
         cy="0"
         r="4.0500002"
         class="circle-bg-pirates"
         id="circle152" />
      <use
         xlink:href="#flag-1-red"
         x="0.2"
         y="0"
         id="use154"
         width="100%"
         height="100%" />
      <use
         xlink:href="#must"
         x="0"
         y="0"
         id="use156"
         width="100%"
         height="100%" />
      <use
         xlink:href="#circle_blue"
         x="0"
         y="0"
         id="use158"
         width="100%"
         height="100%" />
      <use
         xlink:href="#flag-1-red"
         x="0.2"
         y="0"
         clip-path="url(#clip-flag)"
         id="use160"
         width="100%"
         height="100%" />
    </g>
    <g
       id="signal-pirate-must-1-green">
      <circle
         cx="0"
         cy="0"
         r="4.0500002"
         class="circle-bg-pirates"
         id="circle163" />
      <use
         xlink:href="#flag-1-green"
         x="0.2"
         y="0"
         id="use165"
         width="100%"
         height="100%" />
      <use
         xlink:href="#must"
         x="0"
         y="0"
         id="use167"
         width="100%"
         height="100%" />
      <use
         xlink:href="#circle_blue"
         x="0"
         y="0"
         id="use169"
         width="100%"
         height="100%" />
      <use
         xlink:href="#flag-1-green"
         x="0.2"
         y="0"
         clip-path="url(#clip-flag)"
         id="use171"
         width="100%"
         height="100%" />
    </g>
    <g
       id="signal-pirate-must-1-blue">
      <circle
         cx="0"
         cy="0"
         r="4.0500002"
         class="circle-bg-pirates"
         id="circle174" />
      <use
         xlink:href="#flag-1-blue"
         x="0.2"
         y="0"
         id="use176"
         width="100%"
         height="100%" />
      <use
         xlink:href="#must"
         x="0"
         y="0"
         id="use178"
         width="100%"
         height="100%" />
      <use
         xlink:href="#circle_blue"
         x="0"
         y="0"
         id="use180"
         width="100%"
         height="100%" />
      <use
         xlink:href="#flag-1-blue"
         x="0.2"
         y="0"
         clip-path="url(#clip-flag)"
         id="use182"
         width="100%"
         height="100%" />
    </g>
    <g
       id="signal-pirate-cant-1-red">
      <circle
         cx="0"
         cy="0"
         r="4.0500002"
         class="circle-bg-pirates"
         id="circle185" />
      <use
         xlink:href="#flag-1-red"
         x="0.2"
         y="0"
         id="use187"
         width="100%"
         height="100%" />
      <use
         xlink:href="#cant"
         x="0"
         y="0"
         id="use189"
         width="100%"
         height="100%" />
      <use
         xlink:href="#circle_blue"
         x="0"
         y="0"
         id="use191"
         width="100%"
         height="100%" />
      <use
         xlink:href="#flag-1-red"
         x="0.2"
         y="0"
         clip-path="url(#clip-flag)"
         id="use193"
         width="100%"
         height="100%" />
    </g>
    <g
       id="signal-pirate-cant-1-green">
      <circle
         cx="0"
         cy="0"
         r="4.0500002"
         class="circle-bg-pirates"
         id="circle196" />
      <use
         xlink:href="#flag-1-green"
         x="0.2"
         y="0"
         id="use198"
         width="100%"
         height="100%" />
      <use
         xlink:href="#cant"
         x="0"
         y="0"
         id="use200"
         width="100%"
         height="100%" />
      <use
         xlink:href="#circle_blue"
         x="0"
         y="0"
         id="use202"
         width="100%"
         height="100%" />
      <use
         xlink:href="#flag-1-green"
         x="0.2"
         y="0"
         clip-path="url(#clip-flag)"
         id="use204"
         width="100%"
         height="100%" />
    </g>
    <g
       id="signal-pirate-cant-1-blue">
      <circle
         cx="0"
         cy="0"
         r="4.0500002"
         class="circle-bg-pirates"
         id="circle207" />
      <use
         xlink:href="#flag-1-blue"
         x="0.2"
         y="0"
         id="use209"
         width="100%"
         height="100%" />
      <use
         xlink:href="#cant"
         x="0"
         y="0"
         id="use211"
         width="100%"
         height="100%" />
      <use
         xlink:href="#circle_blue"
         x="0"
         y="0"
         id="use213"
         width="100%"
         height="100%" />
      <use
         xlink:href="#flag-1-blue"
         x="0.2"
         y="0"
         clip-path="url(#clip-flag)"
         id="use215"
         width="100%"
         height="100%" />
    </g>
    <g
       id="signal-thief-must-1-red">
      <circle
         cx="0"
         cy="0"
         r="4.0500002"
         class="circle-bg-thieves"
         id="circle218" />
      <use
         xlink:href="#flag-1-red"
         x="0.2"
         y="0"
         id="use220"
         width="100%"
         height="100%" />
      <use
         xlink:href="#must"
         x="0"
         y="0"
         id="use222"
         width="100%"
         height="100%" />
      <use
         xlink:href="#circle_brown"
         x="0"
         y="0"
         id="use224"
         width="100%"
         height="100%" />
      <use
         xlink:href="#flag-1-red"
         x="0.2"
         y="0"
         clip-path="url(#clip-flag)"
         id="use226"
         width="100%"
         height="100%" />
    </g>
    <g
       id="signal-thief-must-1-green">
      <circle
         cx="0"
         cy="0"
         r="4.0500002"
         class="circle-bg-thieves"
         id="circle229" />
      <use
         xlink:href="#flag-1-green"
         x="0.2"
         y="0"
         id="use231"
         width="100%"
         height="100%" />
      <use
         xlink:href="#must"
         x="0"
         y="0"
         id="use233"
         width="100%"
         height="100%" />
      <use
         xlink:href="#circle_brown"
         x="0"
         y="0"
         id="use235"
         width="100%"
         height="100%" />
      <use
         xlink:href="#flag-1-green"
         x="0.2"
         y="0"
         clip-path="url(#clip-flag)"
         id="use237"
         width="100%"
         height="100%" />
    </g>
    <g
       id="signal-thief-must-1-blue">
      <circle
         cx="0"
         cy="0"
         r="4.0500002"
         class="circle-bg-thieves"
         id="circle240" />
      <use
         xlink:href="#flag-1-blue"
         x="0.2"
         y="0"
         id="use242"
         width="100%"
         height="100%" />
      <use
         xlink:href="#must"
         x="0"
         y="0"
         id="use244"
         width="100%"
         height="100%" />
      <use
         xlink:href="#circle_brown"
         x="0"
         y="0"
         id="use246"
         width="100%"
         height="100%" />
      <use
         xlink:href="#flag-1-blue"
         x="0.2"
         y="0"
         clip-path="url(#clip-flag)"
         id="use248"
         width="100%"
         height="100%" />
    </g>
    <g
       id="signal-thief-cant-1-red">
      <circle
         cx="0"
         cy="0"
         r="4.0500002"
         class="circle-bg-thieves"
         id="circle251" />
      <use
         xlink:href="#flag-1-red"
         x="0.2"
         y="0"
         id="use253"
         width="100%"
         height="100%" />
      <use
         xlink:href="#cant"
         x="0"
         y="0"
         id="use255"
         width="100%"
         height="100%" />
      <use
         xlink:href="#circle_brown"
         x="0"
         y="0"
         id="use257"
         width="100%"
         height="100%" />
      <use
         xlink:href="#flag-1-red"
         x="0.2"
         y="0"
         clip-path="url(#clip-flag)"
         id="use259"
         width="100%"
         height="100%" />
    </g>
    <g
       id="signal-thief-cant-1-green">
      <circle
         cx="0"
         cy="0"
         r="4.0500002"
         class="circle-bg-thieves"
         id="circle262" />
      <use
         xlink:href="#flag-1-green"
         x="0.2"
         y="0"
         id="use264"
         width="100%"
         height="100%" />
      <use
         xlink:href="#cant"
         x="0"
         y="0"
         id="use266"
         width="100%"
         height="100%" />
      <use
         xlink:href="#circle_brown"
         x="0"
         y="0"
         id="use268"
         width="100%"
         height="100%" />
      <use
         xlink:href="#flag-1-green"
         x="0.2"
         y="0"
         clip-path="url(#clip-flag)"
         id="use270"
         width="100%"
         height="100%" />
    </g>
    <g
       id="signal-thief-cant-1-blue">
      <circle
         cx="0"
         cy="0"
         r="4.0500002"
         class="circle-bg-thieves"
         id="circle273" />
      <use
         xlink:href="#flag-1-blue"
         x="0.2"
         y="0"
         id="use275"
         width="100%"
         height="100%" />
      <use
         xlink:href="#cant"
         x="0"
         y="0"
         id="use277"
         width="100%"
         height="100%" />
      <use
         xlink:href="#circle_brown"
         x="0"
         y="0"
         id="use279"
         width="100%"
         height="100%" />
      <use
         xlink:href="#flag-1-blue"
         x="0.2"
         y="0"
         clip-path="url(#clip-flag)"
         id="use281"
         width="100%"
         height="100%" />
    </g>
    <g
       id="flag-0-red">
      <path
         d="M -3,-1.71429 V 1.71429 L 3,0 v 0 z"
         class="flag-bg-red"
         id="path284" />
      <use
         xlink:href="#rudder"
         x="-1.90909"
         y="0"
         id="use286"
         width="100%"
         height="100%" />
    </g>
    <g
       id="flag-0-green">
      <path
         d="M -3,-1.71429 V 1.71429 L 3,0 v 0 z"
         class="flag-bg-green"
         id="path289" />
      <use
         xlink:href="#parrot"
         x="-1.90909"
         y="0"
         id="use291"
         width="100%"
         height="100%" />
    </g>
    <g
       id="flag-0-blue">
      <path
         d="M -3,-1.71429 V 1.71429 L 3,0 v 0 z"
         class="flag-bg-blue"
         id="path294" />
      <use
         xlink:href="#anchor"
         x="-1.90909"
         y="0"
         id="use296"
         width="100%"
         height="100%" />
    </g>
    <g
       id="choice-buoy-0">
      <use
         xlink:href="#buoy"
         x="0"
         y="0"
         id="use299"
         width="100%"
         height="100%" />
      <use
         xlink:href="#flag-0-red"
         x="6"
         y="-4.1999998"
         id="use301"
         width="100%"
         height="100%" />
      <use
         xlink:href="#flag-0-green"
         x="6"
         y="0"
         id="use303"
         width="100%"
         height="100%" />
      <use
         xlink:href="#flag-0-blue"
         x="6"
         y="4.1999998"
         id="use305"
         width="100%"
         height="100%" />
    </g>
    <g
       id="choice-shed-0">
      <use
         xlink:href="#shed"
         x="0"
         y="0"
         id="use308"
         width="100%"
         height="100%" />
      <use
         xlink:href="#flag-0-red"
         x="6"
         y="-4.1999998"
         id="use310"
         width="100%"
         height="100%" />
      <use
         xlink:href="#flag-0-green"
         x="6"
         y="0"
         id="use312"
         width="100%"
         height="100%" />
      <use
         xlink:href="#flag-0-blue"
         x="6"
         y="4.1999998"
         id="use314"
         width="100%"
         height="100%" />
    </g>
    <g
       id="signal-pirate-must-0-red">
      <circle
         cx="0"
         cy="0"
         r="4.0500002"
         class="circle-bg-pirates"
         id="circle317" />
      <use
         xlink:href="#flag-0-red"
         x="0.2"
         y="0"
         id="use319"
         width="100%"
         height="100%" />
      <use
         xlink:href="#must"
         x="0"
         y="0"
         id="use321"
         width="100%"
         height="100%" />
      <use
         xlink:href="#circle_blue"
         x="0"
         y="0"
         id="use323"
         width="100%"
         height="100%" />
      <use
         xlink:href="#flag-0-red"
         x="0.2"
         y="0"
         clip-path="url(#clip-flag)"
         id="use325"
         width="100%"
         height="100%" />
    </g>
    <g
       id="signal-pirate-must-0-green">
      <circle
         cx="0"
         cy="0"
         r="4.0500002"
         class="circle-bg-pirates"
         id="circle328" />
      <use
         xlink:href="#flag-0-green"
         x="0.2"
         y="0"
         id="use330"
         width="100%"
         height="100%" />
      <use
         xlink:href="#must"
         x="0"
         y="0"
         id="use332"
         width="100%"
         height="100%" />
      <use
         xlink:href="#circle_blue"
         x="0"
         y="0"
         id="use334"
         width="100%"
         height="100%" />
      <use
         xlink:href="#flag-0-green"
         x="0.2"
         y="0"
         clip-path="url(#clip-flag)"
         id="use336"
         width="100%"
         height="100%" />
    </g>
    <g
       id="signal-pirate-must-0-blue">
      <circle
         cx="0"
         cy="0"
         r="4.0500002"
         class="circle-bg-pirates"
         id="circle339" />
      <use
         xlink:href="#flag-0-blue"
         x="0.2"
         y="0"
         id="use341"
         width="100%"
         height="100%" />
      <use
         xlink:href="#must"
         x="0"
         y="0"
         id="use343"
         width="100%"
         height="100%" />
      <use
         xlink:href="#circle_blue"
         x="0"
         y="0"
         id="use345"
         width="100%"
         height="100%" />
      <use
         xlink:href="#flag-0-blue"
         x="0.2"
         y="0"
         clip-path="url(#clip-flag)"
         id="use347"
         width="100%"
         height="100%" />
    </g>
    <g
       id="signal-pirate-cant-0-red">
      <circle
         cx="0"
         cy="0"
         r="4.0500002"
         class="circle-bg-pirates"
         id="circle350" />
      <use
         xlink:href="#flag-0-red"
         x="0.2"
         y="0"
         id="use352"
         width="100%"
         height="100%" />
      <use
         xlink:href="#cant"
         x="0"
         y="0"
         id="use354"
         width="100%"
         height="100%" />
      <use
         xlink:href="#circle_blue"
         x="0"
         y="0"
         id="use356"
         width="100%"
         height="100%" />
      <use
         xlink:href="#flag-0-red"
         x="0.2"
         y="0"
         clip-path="url(#clip-flag)"
         id="use358"
         width="100%"
         height="100%" />
    </g>
    <g
       id="signal-pirate-cant-0-green">
      <circle
         cx="0"
         cy="0"
         r="4.0500002"
         class="circle-bg-pirates"
         id="circle361" />
      <use
         xlink:href="#flag-0-green"
         x="0.2"
         y="0"
         id="use363"
         width="100%"
         height="100%" />
      <use
         xlink:href="#cant"
         x="0"
         y="0"
         id="use365"
         width="100%"
         height="100%" />
      <use
         xlink:href="#circle_blue"
         x="0"
         y="0"
         id="use367"
         width="100%"
         height="100%" />
      <use
         xlink:href="#flag-0-green"
         x="0.2"
         y="0"
         clip-path="url(#clip-flag)"
         id="use369"
         width="100%"
         height="100%" />
    </g>
    <g
       id="signal-pirate-cant-0-blue">
      <circle
         cx="0"
         cy="0"
         r="4.0500002"
         class="circle-bg-pirates"
         id="circle372" />
      <use
         xlink:href="#flag-0-blue"
         x="0.2"
         y="0"
         id="use374"
         width="100%"
         height="100%" />
      <use
         xlink:href="#cant"
         x="0"
         y="0"
         id="use376"
         width="100%"
         height="100%" />
      <use
         xlink:href="#circle_blue"
         x="0"
         y="0"
         id="use378"
         width="100%"
         height="100%" />
      <use
         xlink:href="#flag-0-blue"
         x="0.2"
         y="0"
         clip-path="url(#clip-flag)"
         id="use380"
         width="100%"
         height="100%" />
    </g>
    <g
       id="signal-thief-must-0-red">
      <circle
         cx="0"
         cy="0"
         r="4.0500002"
         class="circle-bg-thieves"
         id="circle383" />
      <use
         xlink:href="#flag-0-red"
         x="0.2"
         y="0"
         id="use385"
         width="100%"
         height="100%" />
      <use
         xlink:href="#must"
         x="0"
         y="0"
         id="use387"
         width="100%"
         height="100%" />
      <use
         xlink:href="#circle_brown"
         x="0"
         y="0"
         id="use389"
         width="100%"
         height="100%" />
      <use
         xlink:href="#flag-0-red"
         x="0.2"
         y="0"
         clip-path="url(#clip-flag)"
         id="use391"
         width="100%"
         height="100%" />
    </g>
    <g
       id="signal-thief-must-0-green">
      <circle
         cx="0"
         cy="0"
         r="4.0500002"
         class="circle-bg-thieves"
         id="circle394" />
      <use
         xlink:href="#flag-0-green"
         x="0.2"
         y="0"
         id="use396"
         width="100%"
         height="100%" />
      <use
         xlink:href="#must"
         x="0"
         y="0"
         id="use398"
         width="100%"
         height="100%" />
      <use
         xlink:href="#circle_brown"
         x="0"
         y="0"
         id="use400"
         width="100%"
         height="100%" />
      <use
         xlink:href="#flag-0-green"
         x="0.2"
         y="0"
         clip-path="url(#clip-flag)"
         id="use402"
         width="100%"
         height="100%" />
    </g>
    <g
       id="signal-thief-must-0-blue">
      <circle
         cx="0"
         cy="0"
         r="4.0500002"
         class="circle-bg-thieves"
         id="circle405" />
      <use
         xlink:href="#flag-0-blue"
         x="0.2"
         y="0"
         id="use407"
         width="100%"
         height="100%" />
      <use
         xlink:href="#must"
         x="0"
         y="0"
         id="use409"
         width="100%"
         height="100%" />
      <use
         xlink:href="#circle_brown"
         x="0"
         y="0"
         id="use411"
         width="100%"
         height="100%" />
      <use
         xlink:href="#flag-0-blue"
         x="0.2"
         y="0"
         clip-path="url(#clip-flag)"
         id="use413"
         width="100%"
         height="100%" />
    </g>
    <g
       id="signal-thief-cant-0-red">
      <circle
         cx="0"
         cy="0"
         r="4.0500002"
         class="circle-bg-thieves"
         id="circle416" />
      <use
         xlink:href="#flag-0-red"
         x="0.2"
         y="0"
         id="use418"
         width="100%"
         height="100%" />
      <use
         xlink:href="#cant"
         x="0"
         y="0"
         id="use420"
         width="100%"
         height="100%" />
      <use
         xlink:href="#circle_brown"
         x="0"
         y="0"
         id="use422"
         width="100%"
         height="100%" />
      <use
         xlink:href="#flag-0-red"
         x="0.2"
         y="0"
         clip-path="url(#clip-flag)"
         id="use424"
         width="100%"
         height="100%" />
    </g>
    <g
       id="signal-thief-cant-0-green">
      <circle
         cx="0"
         cy="0"
         r="4.0500002"
         class="circle-bg-thieves"
         id="circle427" />
      <use
         xlink:href="#flag-0-green"
         x="0.2"
         y="0"
         id="use429"
         width="100%"
         height="100%" />
      <use
         xlink:href="#cant"
         x="0"
         y="0"
         id="use431"
         width="100%"
         height="100%" />
      <use
         xlink:href="#circle_brown"
         x="0"
         y="0"
         id="use433"
         width="100%"
         height="100%" />
      <use
         xlink:href="#flag-0-green"
         x="0.2"
         y="0"
         clip-path="url(#clip-flag)"
         id="use435"
         width="100%"
         height="100%" />
    </g>
    <g
       id="signal-thief-cant-0-blue">
      <circle
         cx="0"
         cy="0"
         r="4.0500002"
         class="circle-bg-thieves"
         id="circle438" />
      <use
         xlink:href="#flag-0-blue"
         x="0.2"
         y="0"
         id="use440"
         width="100%"
         height="100%" />
      <use
         xlink:href="#cant"
         x="0"
         y="0"
         id="use442"
         width="100%"
         height="100%" />
      <use
         xlink:href="#circle_brown"
         x="0"
         y="0"
         id="use444"
         width="100%"
         height="100%" />
      <use
         xlink:href="#flag-0-blue"
         x="0.2"
         y="0"
         clip-path="url(#clip-flag)"
         id="use446"
         width="100%"
         height="100%" />
    </g>
  </defs>
  <g
     id="background"
     transform="matrix(4,0,0,4,429.6163,-230.01991)">
    <rect
       x="-171.42101"
       y="-30"
       width="342.84299"
       height="236.77699"
       class="backgroundWater"
       id="rect451" />
    <g
       id="g144542"
       transform="matrix(2.4058506,0,0,2.4058506,273.20109,-355.47914)"
       style="display:inline">
      <path
         id="path143407"
         style="fill:#6f918a;stroke:#000000;stroke-width:0.458113px;stroke-linecap:butt;stroke-linejoin:miter;stroke-opacity:1"
         d="m 39.503906,59.082031 c -1.165304,1.750677 -2.587419,0.710654 -3.960937,0.207031 0.246047,5.044196 3.393054,6.767088 7.113281,7.835938 -2.298164,1.126527 -3.356041,2.380654 -4.248047,3.71875 0.03274,0.03268 0.06573,0.06392 0.09766,0.09766 2.136327,1.854903 4.436427,0.91153 6.648438,-0.03125 0.490348,-0.940267 0.718537,-1.862525 0.519531,-2.751953 3.993487,-0.755754 7.908332,-1.607269 9.191406,-5.730469 -2.049675,-0.1008 -4.508494,0.760977 -5.582031,-1.630859 -2.081083,1.194142 -3.625613,0.647144 -4.667969,-1.529297 -1.635401,0.708132 -3.239555,1.777464 -5.111328,-0.185547 z"
         transform="matrix(0.26458333,0,0,0.26458333,-173.49707,160.26196)"
         sodipodi:nodetypes="ccccccccccc" />
      <path
         style="fill:none;stroke:#000000;stroke-width:0.0892852px;stroke-linecap:butt;stroke-linejoin:miter;stroke-opacity:1"
         d="m -165.69718,179.24752 c 0.51012,-0.7703 1.75547,-0.88407 2.38801,-0.21563 0.71797,0.62339 1.50642,0.0521 2.22734,-0.19589 1.01491,-0.47632 1.62334,0.79604 2.61963,0.62555"
         id="path141060-8-3"
         sodipodi:nodetypes="cccc" />
      <path
         style="font-variation-settings:normal;opacity:1;vector-effect:none;fill:#6f918a;fill-opacity:1;stroke:#000000;stroke-width:0.121209px;stroke-linecap:butt;stroke-linejoin:miter;stroke-miterlimit:4;stroke-dasharray:none;stroke-dashoffset:0;stroke-opacity:1;-inkscape-stroke:none;stop-color:#000000;stop-opacity:1"
         d="m -163.01339,175.90801 c -0.0551,0.43461 -0.047,0.75526 0.11703,0.79454"
         id="path1660"
         sodipodi:nodetypes="cc" />
      <path
         style="font-variation-settings:normal;opacity:1;vector-effect:none;fill:#6f918a;fill-opacity:1;stroke:#000000;stroke-width:0.121209px;stroke-linecap:butt;stroke-linejoin:miter;stroke-miterlimit:4;stroke-dasharray:none;stroke-dashoffset:0;stroke-opacity:1;-inkscape-stroke:none;stop-color:#000000;stop-opacity:1"
         d="m -161.70978,175.96417 c -0.10257,0.26519 -0.19718,0.51957 -0.22238,0.67989"
         id="path1662"
         sodipodi:nodetypes="cc" />
      <path
         style="font-variation-settings:normal;opacity:1;vector-effect:none;fill:#6f918a;fill-opacity:1;stroke:#000000;stroke-width:0.121209px;stroke-linecap:butt;stroke-linejoin:miter;stroke-miterlimit:4;stroke-dasharray:none;stroke-dashoffset:0;stroke-opacity:1;-inkscape-stroke:none;stop-color:#000000;stop-opacity:1"
         d="m -160.43931,176.3508 c -0.16417,0.47378 -0.32168,0.67069 -0.47522,0.70267"
         id="path1664"
         sodipodi:nodetypes="cc" />
    </g>
    <use
       xlink:href="#island"
       class="wave-3"
       id="use453"
       x="0"
       y="0"
       width="100%"
       height="100%" />
    <use
       xlink:href="#island"
       class="wave-3-shadow"
       id="use455"
       x="0"
       y="0"
       width="100%"
       height="100%" />
    <use
       xlink:href="#island"
       class="wave-2"
       id="use457"
       x="0"
       y="0"
       width="100%"
       height="100%" />
    <use
       xlink:href="#island"
       class="wave-2-shadow"
       id="use459"
       x="0"
       y="0"
       width="100%"
       height="100%" />
    <use
       xlink:href="#island"
       class="wave-1"
       id="use461"
       x="0"
       y="0"
       width="100%"
       height="100%" />
    <use
       xlink:href="#island"
       class="wave-1-shadow"
       id="use463"
       x="0"
       y="0"
       width="100%"
       height="100%" />
    <g
       class="mainIsland"
       id="g468">
      <g
         id="island">
        <path
           id="path465"
           class=""
           d="m -55.677389,38.135837 c -10.688803,-0.475193 -22.435067,8.231792 -24.623305,17.954752 4.135971,15.632282 23.219533,16.001725 36.308906,17.9806 10.950176,-0.03693 33.161054,-3.859551 26.748652,-19.582967 -7.770767,-10.550994 -22.263372,-13.796068 -34.62306,-15.99387 L -53.77619,38.287897 Z M 44.38511,108.29795 c -11.899619,6.55557 -9.282821,22.78787 -8.36309,34.14216 3.643362,9.61755 3.434429,22.07164 -8.833549,23.88353 -8.70345,10.71758 3.671581,27.45225 16.65931,23.96038 11.647116,-4.53552 27.112145,-3.3506 34.097619,-15.59683 7.20268,-11.36477 14.738521,-27.03592 5.976632,-39.62812 -10.098899,-7.16858 -21.001328,-13.64395 -29.355734,-23.31218 -2.645422,-2.57818 -6.635053,-3.25902 -10.181188,-3.44894 z m -103.109374,12.8164 c -17.079994,4.62662 -2.007216,25.30568 -10.370207,35.91491 -6.578757,8.17608 -18.898599,22.47795 -5.572175,30.66373 11.866577,7.2318 25.972299,-3.07805 28.729446,-15.25747 2.61177,-11.8727 10.636599,-20.51438 18.856386,-28.66159 8.063479,-13.16259 -10.097898,-16.61577 -19.322006,-18.41994 -4.279281,-0.78011 -8.674438,-1.73477 -12.321444,-4.23964 z m -89.605466,6.92383 c -13.87551,7.57883 -0.97516,31.33561 13.03189,29.63729 12.10408,0.0306 14.38165,-23.06658 3.42705,-26.52562 -5.10264,-2.44509 -10.82569,-3.44485 -16.45894,-3.11167 z m 294.83789,33.6543 c -12.52243,0.72903 -22.29492,26.47051 -6.05281,27.24874 15.0096,1.91008 20.64389,-18.0154 9.4374,-26.17258 l -1.53959,-0.67973 z"
           sodipodi:nodetypes="ssssscssssssssssscsscsssssssssscscssssssssssssssssscsssssssssscsssscssscssccsscsscssssssssss" />
      </g>
    </g>
    <rect
       x="-150.25941"
       y="50.004978"
       width="303.76321"
       height="138.68573"
       class="fog"
       id="rect470" />
  </g>
  <g
     id="shadows"
     transform="matrix(4,0,0,4,429.6163,-230.01991)">
    <use
       xlink:href="#id-676"
       class="shadowArrow"
       id="use473"
       x="0"
       y="0"
       width="100%"
       height="100%" />
    <use
       xlink:href="#id-677"
       class="shadowArrow"
       id="use475"
       x="0"
       y="0"
       width="100%"
       height="100%" />
    <use
       xlink:href="#id-679"
       class="shadowArrow"
       id="use479"
       x="0"
       y="0"
       width="100%"
       height="100%" />
    <use
       xlink:href="#id-680"
       class="shadowArrow"
       id="use481"
       x="0"
       y="0"
       width="100%"
       height="100%" />
    <use
       xlink:href="#id-681"
       class="shadowArrow"
       id="use483"
       x="0"
       y="0"
       width="100%"
       height="100%" />
    <use
       xlink:href="#id-682"
       class="shadowArrow"
       id="use485"
       x="0"
       y="0"
       width="100%"
       height="100%" />
    <use
       xlink:href="#id-683"
       class="shadowArrow"
       id="use487"
       x="0"
       y="0"
       width="100%"
       height="100%" />
    <use
       xlink:href="#id-684"
       class="shadowArrow"
       id="use489"
       x="0"
       y="0"
       width="100%"
       height="100%" />
    <use
       xlink:href="#id-685"
       class="shadowArrow"
       id="use491"
       x="0"
       y="0"
       width="100%"
       height="100%" />
    <use
       xlink:href="#id-686"
       class="shadowArrow"
       id="use493"
       x="0"
       y="0"
       width="100%"
       height="100%" />
    <use
       xlink:href="#id-687"
       class="shadowArrow"
       id="use495"
       x="0"
       y="0"
       width="100%"
       height="100%" />
    <use
       xlink:href="#id-688"
       class="shadowArrow"
       id="use497"
       x="0"
       y="0"
       width="100%"
       height="100%" />
    <use
       xlink:href="#id-689"
       class="shadowArrow"
       id="use499"
       x="0"
       y="0"
       width="100%"
       height="100%" />
    <use
       xlink:href="#id-690"
       class="shadowArrow"
       id="use501"
       x="0"
       y="0"
       width="100%"
       height="100%" />
    <use
       xlink:href="#id-691"
       class="shadowArrow"
       id="use503"
       x="0"
       y="0"
       width="100%"
       height="100%" />
    <use
       xlink:href="#id-692"
       class="shadowArrow"
       id="use505"
       x="0"
       y="0"
       width="100%"
       height="100%" />
    <use
       xlink:href="#id-693"
       class="shadowArrow"
       id="use507"
       x="0"
       y="0"
       width="100%"
       height="100%" />
    <use
       xlink:href="#id-694"
       class="shadowArrow"
       id="use509"
       x="0"
       y="0"
       width="100%"
       height="100%" />
    <use
       xlink:href="#id-695"
       class="shadowArrow"
       id="use511"
       x="0"
       y="0"
       width="100%"
       height="100%" />
    <use
       xlink:href="#id-696"
       class="shadowArrow"
       id="use513"
       x="0"
       y="0"
       width="100%"
       height="100%" />
  </g>
  <g
     id="arrows"
     transform="matrix(4,0,0,4,429.6163,-230.01991)">
    <g
       class="initArrow"
       id="g519"
       transform="translate(-43.800929,59.536527)">
      <g
         id="id-676">
        <path
           d="M -20,0 H -9"
           class="arrow"
           id="path516" />
      </g>
    </g>
    <g
       class="thievesArrow"
       id="g524">
      <g
         id="id-677">
        <path
           d="m -42.864966,61.38727 35.6116517,5.259064"
           class="arrow"
           id="path521"
           sodipodi:nodetypes="cc" />
      </g>
    </g>
    <g
       class="piratesArrow"
       id="g534">
      <g
         id="id-679">
        <path
           d="M 0,70.7107 -97.5279,103.22"
           class="arrow"
           id="path531" />
      </g>
    </g>
    <g
       class="piratesArrow"
       id="g539">
      <g
         id="id-680">
        <path
           d="M 0,70.7107 V 97.066"
           class="arrow"
           id="path536" />
      </g>
    </g>
    <g
       class="piratesArrow"
       id="g544">
      <g
         id="id-681">
        <path
           d="M 0,70.7107 97.5279,103.22"
           class="arrow"
           id="path541" />
      </g>
    </g>
    <g
       class="piratesArrow"
       id="g549">
      <g
         id="id-682">
        <path
           d="M -106.066,106.066"
           class="arrow"
           id="path546" />
      </g>
    </g>
    <g
       class="piratesArrow"
       id="g554">
      <g
         id="id-683">
        <path
           d="m -106.066,106.066 -30.901,30.901"
           class="arrow"
           id="path551" />
      </g>
    </g>
    <g
       class="piratesArrow"
       id="g559">
      <g
         id="id-684">
        <path
           d="m -106.066,106.066 13.6527,27.306"
           class="arrow"
           id="path556" />
      </g>
    </g>
    <g
       class="piratesArrow"
       id="g564">
      <g
         id="id-685">
        <path
           d="m -88.3883,141.421 -14.8607,29.721"
           class="arrow"
           id="path561" />
      </g>
    </g>
    <g
       class="piratesArrow"
       id="g569">
      <g
         id="id-686">
        <path
           d="m -88.3883,141.421 14.8602,29.721"
           class="arrow"
           id="path566" />
      </g>
    </g>
    <g
       class="piratesArrow"
       id="g574">
      <g
         id="id-687">
        <path
           d="M 0,106.066"
           class="arrow"
           id="path571" />
      </g>
    </g>
    <g
       class="piratesArrow"
       id="g579">
      <g
         id="id-688">
        <path
           d="m 0,106.066 -30.9006,30.901"
           class="arrow"
           id="path576" />
      </g>
    </g>
    <g
       class="piratesArrow"
       id="g584">
      <g
         id="id-689">
        <path
           d="m 0,106.066 13.6527,27.306"
           class="arrow"
           id="path581" />
      </g>
    </g>
    <g
       class="piratesArrow"
       id="g589">
      <g
         id="id-690">
        <path
           d="M 17.6777,141.421 2.81745,171.142"
           class="arrow"
           id="path586" />
      </g>
    </g>
    <g
       class="piratesArrow"
       id="g594">
      <g
         id="id-691">
        <path
           d="m 17.6777,141.421 14.8602,29.721"
           class="arrow"
           id="path591" />
      </g>
    </g>
    <g
       class="piratesArrow"
       id="g599">
      <g
         id="id-692">
        <path
           d="M 106.066,106.066"
           class="arrow"
           id="path596" />
      </g>
    </g>
    <g
       class="piratesArrow"
       id="g604">
      <g
         id="id-693">
        <path
           d="M 106.066,106.066 75.1655,136.967"
           class="arrow"
           id="path601" />
      </g>
    </g>
    <g
       class="piratesArrow"
       id="g609">
      <g
         id="id-694">
        <path
           d="m 106.066,106.066 13.653,27.306"
           class="arrow"
           id="path606" />
      </g>
    </g>
    <g
       class="piratesArrow"
       id="g614">
      <g
         id="id-695">
        <path
           d="m 123.744,141.421 -14.861,29.721"
           class="arrow"
           id="path611" />
      </g>
    </g>
    <g
       class="piratesArrow"
       id="g619">
      <g
         id="id-696">
        <path
           d="m 123.744,141.421 14.86,29.721"
           class="arrow"
           id="path616" />
      </g>
    </g>
  </g>
  <g
     id="signals"
     transform="matrix(4,0,0,4,429.6163,-230.01991)">
    <g
       id="g624">
      <use
         x="-97.227203"
         y="123.744"
         xlink:href="#signal-pirate-must-1-red"
         class=""
         id="use622"
         width="100%"
         height="100%" />
    </g>
    <g
       id="g628">
      <use
         x="-97.227203"
         y="159.099"
         xlink:href="#signal-pirate-must-0-green"
         class=""
         id="use626"
         width="100%"
         height="100%" />
    </g>
    <g
       id="g632">
      <use
         x="8.83883"
         y="123.744"
         xlink:href="#signal-pirate-must-1-green"
         class=""
         id="use630"
         width="100%"
         height="100%" />
    </g>
    <g
       id="g636">
      <use
         x="8.83883"
         y="159.099"
         xlink:href="#signal-pirate-must-0-blue"
         class=""
         id="use634"
         width="100%"
         height="100%" />
    </g>
    <g
       id="g640">
      <use
         x="114.905"
         y="123.744"
         xlink:href="#signal-pirate-must-1-blue"
         class=""
         id="use638"
         width="100%"
         height="100%" />
    </g>
    <g
       id="g644">
      <use
         x="114.905"
         y="159.099"
         xlink:href="#signal-pirate-must-0-red"
         class=""
         id="use642"
         width="100%"
         height="100%" />
    </g>
  </g>
  <g
     id="nodes"
     transform="matrix(4,0,0,4,429.6163,-230.01991)">
    <use
       x="0"
       y="0"
       xlink:href="#choice-shed-0"
       class=""
       id="use647"
       transform="translate(-42.857549,60.196803)"
       width="100%"
       height="100%" />
    <use
       x="0"
       y="35.355301"
       xlink:href="#choice-buoy-1"
       class=""
       id="use649"
       transform="translate(0.47792955,34.945331)"
       width="100%"
       height="100%" />
    <use
       x="-106.066"
       y="106.066"
       xlink:href="#buoy"
       class=""
       id="use653"
       width="100%"
       height="100%" />
    <use
       x="-141.42101"
       y="141.42101"
       xlink:href="#thieves_win"
       class=""
       id="use655"
       width="100%"
       height="100%" />
    <use
       x="-88.388298"
       y="141.42101"
       xlink:href="#buoy"
       class=""
       id="use657"
       width="100%"
       height="100%" />
    <use
       x="-106.066"
       y="176.77699"
       xlink:href="#pirates_win"
       class=""
       id="use659"
       width="100%"
       height="100%" />
    <use
       x="-70.710701"
       y="176.77699"
       xlink:href="#thieves_win"
       class=""
       id="use661"
       width="100%"
       height="100%" />
    <use
       x="0"
       y="106.066"
       xlink:href="#buoy"
       class=""
       id="use663"
       width="100%"
       height="100%" />
    <use
       x="-35.355301"
       y="141.42101"
       xlink:href="#thieves_win"
       class=""
       id="use665"
       width="100%"
       height="100%" />
    <use
       x="17.6777"
       y="141.42101"
       xlink:href="#buoy"
       class=""
       id="use667"
       width="100%"
       height="100%" />
    <use
       x="0"
       y="176.77699"
       xlink:href="#pirates_win"
       class=""
       id="use669"
       width="100%"
       height="100%" />
    <use
       x="35.355301"
       y="176.77699"
       xlink:href="#thieves_win"
       class=""
       id="use671"
       width="100%"
       height="100%" />
    <use
       x="106.066"
       y="106.066"
       xlink:href="#buoy"
       class=""
       id="use673"
       width="100%"
       height="100%" />
    <use
       x="70.710701"
       y="141.42101"
       xlink:href="#thieves_win"
       class=""
       id="use675"
       width="100%"
       height="100%" />
    <use
       x="123.744"
       y="141.42101"
       xlink:href="#buoy"
       class=""
       id="use677"
       width="100%"
       height="100%" />
    <use
       x="106.066"
       y="176.77699"
       xlink:href="#pirates_win"
       class=""
       id="use679"
       width="100%"
       height="100%" />
    <use
       x="141.42101"
       y="176.77699"
       xlink:href="#thieves_win"
       class=""
       id="use681"
       width="100%"
       height="100%" />
  </g>
  <g
     id="foreground"
     transform="matrix(4,0,0,4,420.47388,-57.864657)">
    <rect
       x="-171.42101"
       y="-30"
       width="342.84299"
       height="236.77699"
       class="fog"
       id="rect684" />
  </g>
  <text
     xml:space="preserve"
     style="font-size:33.1088px;line-height:1.25;font-family:sans-serif;display:inline;stroke-width:2.06922"
     x="-147.85162"
     y="11.193673"
     id="text4954-0"><tspan
       sodipodi:role="line"
       id="tspan4952-2"
       style="stroke-width:2.06922"
       x="-147.85162"
       y="11.193673">C5P</tspan></text>
</svg>
